{
  "timeline": [
    {
      "label": "Development",
      "value": 2020
    },
    {
      "label": "Beta test",
      "value": "Jan 2021"
    },
    {
      "label": "Soft launch",
      "value": "May 2021"
    }
  ],
  "family": [
    {
      "image": "/images/about/sajjad-bozorgi.jpg",
      "name": "Sajjad Bozorgi",
      "role": "Chief Executive Officer",
      "description": "Co-founder of Jobtick, MSc in Business, Passionate about startups"
    },
    {
      "image": "/images/about/samaneh-setayandeh.jpg",
      "name": "Samaneh Setayandeh",
      "role": "Chairwoman",
      "description": "Co-founder of Jobtick, Researcher, Enthusiastically interested in multi-disciplinary subjects"
    }
  ],
  "value": {
    "title": "Our Core Values ",
    "subTitle": "Our core value is our forward-thinking to inspires the members of our community & advance life education.",
    "items": [
      {
        "image": "/vector/about/reliability.svg",
        "title": "Reliability",
        "description": "Jobtick teams comprise dedicated individuals with a high level of desire to make a difference in our customers' lives. "
      },
      {
        "image": "/vector/about/efficiency.svg",
        "title": "Efficiency",
        "description": "Delivering the best possible experience to our customers is no easy task with the least inputs for the highest achievement."
      },
      {
        "image": "/vector/about/innovation.svg",
        "title": "innovation",
        "description": "New ways of doing things, Drive Changes & Deliver Results "
      },
      {
        "image": "/vector/about/community.svg",
        "title": "Community Core",
        "description": "Jobtick is committed to local community activities throughout Australia. "
      }
    ]
  }
}
