<svg viewBox="0 0 56 57" fill="none" xmlns="http://www.w3.org/2000/svg">
<path d="M29.7127 34.9456V39.606L23.9318 45.7884L18.151 39.606V34.8579C19.8427 36.8228 21.8342 38.1309 23.968 38.1309C25.0964 38.0392 26.1924 37.7077 27.1829 37.1585C28.1735 36.6093 29.0359 35.8549 29.7127 34.9456Z" fill="#FFD1AC"/>
<path d="M29.7127 39.6061V37.2893C29.0358 38.1983 28.1733 38.9524 27.1828 39.5012C26.1922 40.0501 25.0963 40.3811 23.968 40.4722C23.1619 40.4641 22.3666 40.2849 21.6347 39.9462C21.5356 39.9008 21.4267 39.881 21.318 39.8887C21.2094 39.8964 21.1044 39.9314 21.0127 39.9904C20.921 40.0494 20.8457 40.1306 20.7935 40.2264C20.7413 40.3223 20.714 40.4297 20.7142 40.5389V42.3413L23.9377 45.7884L29.7127 39.6061Z" fill="#FED9B9"/>
<path d="M23.9692 10.5725C21.0181 10.5731 18.1881 11.748 16.1014 13.8387C14.0147 15.9294 12.8421 18.7648 12.8415 21.7216C13.1247 26.783 15.0098 31.6225 18.2233 35.5381C18.9001 36.4469 19.7624 37.2008 20.7527 37.7497C21.7431 38.2985 22.8388 38.6296 23.9668 38.721C25.0951 38.6297 26.1909 38.2985 27.1815 37.7497C28.172 37.2009 29.0345 36.4469 29.7115 35.5381C32.9258 31.6241 34.8118 26.7857 35.0957 21.7251C35.0961 20.2608 34.8087 18.8107 34.2497 17.4577C33.6908 16.1047 32.8713 14.8753 31.8381 13.8396C30.8049 12.804 29.5782 11.9824 28.228 11.4219C26.8778 10.8613 25.4307 10.5727 23.9692 10.5725Z" fill="#FED9B9"/>
<path d="M35.0968 21.7218C35.0969 19.6563 34.5242 17.6314 33.4428 15.873C32.3614 14.1145 30.8136 12.6916 28.9722 11.7629C27.1308 10.8343 25.0682 10.4364 23.0143 10.6136C20.9603 10.7909 18.996 11.5363 17.3402 12.7668C15.652 14.7736 14.7278 17.3146 14.7315 19.9392C15.014 25.0008 16.8992 29.8405 20.1133 33.7557C20.7901 34.6645 21.6524 35.4185 22.6427 35.9673C23.6331 36.5161 24.7288 36.8473 25.8568 36.9387C27.2764 36.895 28.6431 36.389 29.75 35.4974C32.9423 31.5893 34.8152 26.7674 35.0992 21.7253L35.0968 21.7218Z" fill="#FEE2C6"/>
<path d="M46.9933 52.2443H0.875L1.23667 47.1128C1.31509 46.2398 1.66273 45.413 2.23135 44.7469C2.79998 44.0808 3.5614 43.6086 4.41 43.3957L18.151 39.2449L23.9283 45.4296L29.7127 39.2449L40.0167 42.3577L43.4467 43.398C44.3 43.6039 45.0669 44.0737 45.6386 44.741C46.2103 45.4082 46.5578 46.2389 46.6317 47.1151L46.9933 52.2443Z" fill="#42C854"/>
<path d="M46.8533 50.2806H9.64833C8.37972 50.2806 7.16306 49.7756 6.26601 48.8769C5.36896 47.9781 4.865 46.7591 4.865 45.488C4.86306 45.3788 4.86696 45.2695 4.87667 45.1607C4.87449 44.3792 5.1471 43.6219 5.64667 43.0216L18.151 39.2449L23.9283 45.4296L29.7127 39.2449L40.0167 42.3577L43.4467 43.398C44.2999 43.604 45.0667 44.074 45.6384 44.7412C46.2101 45.4084 46.5576 46.2389 46.6317 47.1151L46.8533 50.2806Z" fill="#4AD64B"/>
<path d="M23.9318 45.4261L19.2768 49.0088L15.1048 40.1648L18.151 39.2449L23.9318 45.4261Z" fill="#01A754"/>
<path d="M32.7588 40.1648L28.5868 49.0088L23.9318 45.4261L29.7127 39.2449L32.7588 40.1648Z" fill="#01A754"/>
<path d="M12.8415 21.7216C12.8415 18.7647 14.0139 15.9288 16.1007 13.838C18.1876 11.7471 21.0179 10.5725 23.9692 10.5725C26.9204 10.5725 29.7508 11.7471 31.8376 13.838C33.9245 15.9288 35.0968 18.7647 35.0968 21.7216H12.8415Z" fill="#42C854"/>
<path d="M12.8415 21.7216C12.8415 18.7647 14.0139 15.9289 16.1007 13.838C18.1876 11.7471 21.0179 10.5725 23.9692 10.5725C26.9204 10.5725 29.7508 11.7471 31.8376 13.838C33.9245 15.9289 35.0968 18.7647 35.0968 21.7216V21.7333H12.8415V21.7216Z" fill="#1AB35A"/>
<path d="M23.1735 20.7527H35.0548C34.9223 19.2323 34.4798 17.7554 33.7546 16.4133C33.0294 15.0712 32.037 13.8925 30.8388 12.9502C29.6407 12.0079 28.2622 11.322 26.7888 10.9349C25.3154 10.5479 23.7783 10.4679 22.2728 10.7001C21.4349 11.1071 20.651 11.6176 19.9395 12.2197C19.193 12.8738 18.6642 13.7411 18.424 14.7051C18.1838 15.6691 18.2437 16.6837 18.5958 17.6126C18.9478 18.5415 19.5751 19.3402 20.3934 19.9015C21.2117 20.4629 22.1818 20.7599 23.1735 20.7527Z" fill="#42C854"/>
<path d="M23.1152 19.7112C23.0002 19.7106 22.8879 19.6765 22.792 19.613C22.7281 19.5704 22.6733 19.5157 22.6305 19.4519C22.5878 19.3881 22.5581 19.3164 22.543 19.2411C22.5279 19.1657 22.5279 19.0881 22.5428 19.0128C22.5577 18.9374 22.5873 18.8657 22.6298 18.8018L23.961 16.8029H22.148C22.0425 16.8029 21.939 16.7742 21.8485 16.7198C21.7579 16.6655 21.6838 16.5875 21.634 16.4943C21.5842 16.4011 21.5606 16.2962 21.5656 16.1906C21.5707 16.085 21.6042 15.9827 21.6627 15.8947L23.5982 12.9876C23.6859 12.8636 23.8185 12.7787 23.9677 12.751C24.1169 12.7233 24.271 12.7549 24.3973 12.8392C24.5236 12.9235 24.6122 13.0537 24.6442 13.2023C24.6762 13.351 24.6492 13.5062 24.5688 13.6352L23.2377 15.634H25.0507C25.1564 15.6339 25.2601 15.6626 25.3508 15.717C25.4415 15.7714 25.5157 15.8495 25.5656 15.9429C25.6154 16.0363 25.639 16.1415 25.6338 16.2473C25.6286 16.353 25.5948 16.4554 25.536 16.5434L23.6005 19.447C23.5477 19.5278 23.4757 19.5942 23.391 19.6403C23.3063 19.6864 23.2116 19.7107 23.1152 19.7112Z" fill="white"/>
<path d="M12.8415 21.7217C11.5278 22.1378 6.59166 25.6025 12.7365 25.6025C21.2765 25.6025 35.0968 23.08 35.0968 21.7217H12.8415Z" fill="#01A754"/>
<path d="M46.9933 52.2443H41.44C40.8352 51.6731 40.3234 51.0105 39.9233 50.2805H46.8533L46.9933 52.2443Z" fill="#1AB35A"/>
<path d="M43.4467 43.3957L40.0167 42.3577C39.3147 43.5565 38.9369 44.918 38.9205 46.3079C38.9042 47.6977 39.2498 49.0678 39.9233 50.2829H46.8533L46.6317 47.1151C46.5581 46.2385 46.2108 45.4074 45.639 44.7397C45.0673 44.0721 44.3002 43.6018 43.4467 43.3957Z" fill="#42C854"/>
<path d="M49.8727 40.7738V19.557C51.3953 18.9794 52.7099 17.9573 53.6461 16.6228C54.5824 15.2883 55.0974 13.703 55.1243 12.072C55.1512 10.441 54.6888 8.83945 53.797 7.4747C52.9052 6.10996 51.6251 5.04484 50.1223 4.41724V11.0578C50.1223 11.6158 49.9011 12.151 49.5073 12.5456C49.1134 12.9402 48.5793 13.1619 48.0223 13.1619H45.9585C45.4016 13.1619 44.8674 12.9402 44.4736 12.5456C44.0798 12.151 43.8585 11.6158 43.8585 11.0578V4.41724C42.3549 5.04662 41.0747 6.11405 40.1838 7.48112C39.293 8.8482 38.8325 10.4519 38.8622 12.0843C38.8919 13.7167 39.4103 15.3025 40.3503 16.6362C41.2902 17.9698 42.6084 18.9899 44.1338 19.564V40.7586C43.0577 41.3047 42.1602 42.1482 41.5476 43.1894C40.9351 44.2306 40.6331 45.4258 40.6774 46.6336C40.7217 47.8414 41.1104 49.0112 41.7977 50.0045C42.4849 50.9979 43.4417 51.7731 44.555 52.2385V47.0848C44.555 46.6508 44.7271 46.2345 45.0334 45.9276C45.3397 45.6207 45.7552 45.4483 46.1883 45.4483H47.7878C48.221 45.4483 48.6365 45.6207 48.9428 45.9276C49.2491 46.2345 49.4212 46.6508 49.4212 47.0848V52.2385C50.5319 51.7743 51.4869 51.0016 52.1739 50.0116C52.8609 49.0215 53.251 47.8554 53.2985 46.6505C53.3459 45.4457 53.0487 44.2524 52.4417 43.2112C51.8348 42.17 50.9434 41.3243 49.8727 40.7738Z" fill="#FF953F"/>
<path d="M46.1883 45.4472H47.7878C48.221 45.4472 48.6365 45.6196 48.9428 45.9265C49.2491 46.2334 49.4212 46.6496 49.4212 47.0836V52.2374C50.5319 51.7731 51.4869 51.0004 52.1739 50.0104C52.8609 49.0204 53.251 47.8542 53.2985 46.6494C53.3459 45.4445 53.0487 44.2512 52.4417 43.21C51.8348 42.1688 50.9434 41.3232 49.8727 40.7727V19.557C51.3953 18.9794 52.7099 17.9573 53.6461 16.6228C54.5824 15.2883 55.0974 13.703 55.1243 12.072C55.1512 10.441 54.6888 8.83945 53.797 7.47471C52.9052 6.10996 51.6251 5.04484 50.1223 4.41724V11.0578C50.1223 11.6158 49.9011 12.151 49.5073 12.5456C49.1134 12.9402 48.5793 13.1619 48.0223 13.1619H45.9585C45.4016 13.1619 44.8674 12.9402 44.4736 12.5456C44.0798 12.151 43.8585 11.6158 43.8585 11.0578V4.90935C42.7236 5.80254 41.8466 6.98236 41.3174 8.32758C40.7883 9.6728 40.6262 11.1349 40.8477 12.5637C41.0692 13.9925 41.6665 15.3364 42.578 16.4574C43.4895 17.5784 44.6825 18.436 46.0343 18.9421V40.1368C45.1298 40.5954 44.3488 41.2656 43.7575 42.0907C43.1662 42.9158 42.7821 43.8714 42.6375 44.8768C42.4929 45.8821 42.5923 46.9076 42.9271 47.8663C43.2618 48.8251 43.8223 49.6889 44.5608 50.3846V47.0848C44.5605 46.6516 44.7317 46.2359 45.0368 45.929C45.3418 45.622 45.756 45.4487 46.1883 45.4472Z" fill="#FCAC44"/>
</svg>
