{
    "title":"Blue days promotion",
    "titleP1":"$50",
    "titleP2":"Off the first job",
    "titleP3":"Code: JOBTICK50",
    "titleP4":"Redeem the code when you accept an offer",
    "titleP4Mobile":"Redeem the code when you accept an offer",
"btnLabel":"Get started"
}