<svg width="62" height="62" viewBox="0 0 62 62" fill="none" xmlns="http://www.w3.org/2000/svg">
<path d="M54.4826 11.9392C55.3649 10.8614 55.8953 9.48491 55.8953 7.98662V6.24977C55.8954 2.80356 53.0916 0 49.6456 0C46.1996 0 43.3958 2.80356 43.3958 6.24977V7.98674C43.3958 9.48503 43.9261 10.8615 44.8084 11.9394C40.5517 12.6484 37.2959 16.355 37.2959 20.81V23.4606C37.2959 24.1293 37.8379 24.6713 38.5066 24.6713H60.7845C61.4531 24.6713 61.9951 24.1293 61.9951 23.4606V20.81C61.9953 16.3549 58.7393 12.6484 54.4826 11.9392ZM45.8173 6.24977C45.8173 4.13886 47.5346 2.42151 49.6456 2.42151C51.7567 2.42151 53.4739 4.13886 53.4739 6.24977V7.98674C53.4739 10.0976 51.7565 11.815 49.6456 11.815C47.5347 11.815 45.8173 10.0976 45.8173 7.98674V6.24977ZM39.7174 22.2496V20.8098C39.7174 17.1854 42.6662 14.2365 46.2907 14.2365H53.0004C56.6249 14.2365 59.5738 17.1853 59.5738 20.8098V22.2496H39.7174Z" fill="#2B3240"/>
<path d="M37.5379 7.89026H31.2419C30.5733 7.89026 30.0312 8.43227 30.0312 9.10095C30.0312 9.76963 30.5733 10.3117 31.2419 10.3117H37.5379C38.2065 10.3117 38.7486 9.76963 38.7486 9.10095C38.7487 8.43227 38.2065 7.89026 37.5379 7.89026Z" fill="#586BF5"/>
<path d="M26.7709 8.24519C26.5457 8.01995 26.2334 7.89038 25.9149 7.89038C25.5964 7.89038 25.2841 8.01995 25.0589 8.24519C24.8337 8.47042 24.7041 8.78272 24.7041 9.1012C24.7041 9.41967 24.8337 9.73197 25.0589 9.95721C25.2841 10.1824 25.5964 10.312 25.9149 10.312C26.2334 10.312 26.5457 10.1824 26.7709 9.95721C26.996 9.73197 27.1257 9.41967 27.1257 9.1012C27.1257 8.78272 26.9962 8.4703 26.7709 8.24519Z" fill="#586BF5"/>
<path d="M34.188 51.7095H27.8113C27.1426 51.7095 26.6006 52.2515 26.6006 52.9202C26.6006 53.5888 27.1426 54.1309 27.8113 54.1309H34.188C34.8566 54.1309 35.3986 53.5888 35.3986 52.9202C35.3986 52.2515 34.8568 51.7095 34.188 51.7095Z" fill="#586BF5"/>
<path d="M9.09058 26.6115C8.4219 26.6115 7.87988 27.1535 7.87988 27.8221V34.118C7.87988 34.7867 8.4219 35.3287 9.09058 35.3287C9.75926 35.3287 10.3013 34.7867 10.3013 34.118V27.8221C10.3014 27.1535 9.75938 26.6115 9.09058 26.6115Z" fill="#586BF5"/>
<path d="M52.9246 26.6115C52.2559 26.6115 51.7139 27.1535 51.7139 27.8221V34.118C51.7139 34.7867 52.2559 35.3287 52.9246 35.3287C53.5932 35.3287 54.1353 34.7867 54.1353 34.118V27.8221C54.1353 27.1535 53.5932 26.6115 52.9246 26.6115Z" fill="#586BF5"/>
<path d="M17.1925 11.9392C18.0747 10.8614 18.6051 9.48491 18.6051 7.98662V6.24977C18.6053 2.80356 15.8016 0 12.3555 0C8.90952 0 6.10559 2.80356 6.10559 6.24977V7.98674C6.10559 9.48503 6.63598 10.8615 7.51827 11.9394C3.26171 12.6484 0.00585938 16.3549 0.00585938 20.8098V23.4605C0.00585938 24.1291 0.547875 24.6712 1.21655 24.6712H23.4944C24.1631 24.6712 24.7051 24.1291 24.7051 23.4605V20.8098C24.7052 16.3549 21.4493 12.6484 17.1925 11.9392ZM8.52711 6.24977C8.52711 4.13886 10.2445 2.42151 12.3555 2.42151C14.4665 2.42151 16.1837 4.13886 16.1837 6.24977V7.98674C16.1837 10.0976 14.4664 11.815 12.3555 11.815C10.2446 11.815 8.52711 10.0976 8.52711 7.98674V6.24977ZM22.2837 22.2496H2.42737V20.8098C2.42737 17.1854 5.37613 14.2365 9.0007 14.2365H15.7104C19.3348 14.2365 22.2837 17.1853 22.2837 20.8098V22.2496Z" fill="#2B3240"/>
<path d="M54.4826 49.268C55.3649 48.1902 55.8953 46.8138 55.8953 45.3155V43.5786C55.8953 40.1324 53.0917 37.3288 49.6455 37.3288C46.1993 37.3288 43.3958 40.1324 43.3958 43.5786V45.3155C43.3958 46.8138 43.9261 48.1902 44.8084 49.268C40.5517 49.977 37.2959 53.6837 37.2959 58.1387V60.7893C37.2959 61.458 37.8379 62 38.5066 62H60.7845C61.4531 62 61.9951 61.458 61.9951 60.7893V58.1387C61.9953 53.6839 58.7393 49.9772 54.4826 49.268ZM45.8173 43.5787C45.8173 41.4678 47.5346 39.7504 49.6455 39.7504C51.7564 39.7504 53.4738 41.4678 53.4738 43.5787V45.3157C53.4738 47.4266 51.7564 49.1439 49.6455 49.1439C47.5346 49.1439 45.8173 47.4266 45.8173 45.3157V43.5787ZM39.7174 59.5785V58.1387C39.7174 54.5142 42.6662 51.5653 46.2907 51.5653H53.0004C56.6249 51.5653 59.5738 54.5141 59.5738 58.1387V59.5785H39.7174Z" fill="#2B3240"/>
<path d="M17.1915 49.268C18.0738 48.1902 18.6042 46.8138 18.6042 45.3155V43.5786C18.6042 40.1324 15.8006 37.3288 12.3544 37.3288C8.90818 37.3288 6.10462 40.1325 6.10462 43.5787V45.3157C6.10462 46.814 6.63501 48.1903 7.5173 49.2682C3.26073 49.9772 0.00488281 53.6839 0.00488281 58.1387V60.7893C0.00488281 61.458 0.546899 62 1.21558 62H23.4934C24.1621 62 24.7041 61.458 24.7041 60.7893V58.1387C24.7043 53.6839 21.4483 49.9772 17.1915 49.268ZM8.52613 43.5787C8.52613 41.4678 10.2435 39.7504 12.3544 39.7504C14.4653 39.7504 16.1826 41.4678 16.1826 43.5787V45.3157C16.1826 47.4266 14.4653 49.1439 12.3544 49.1439C10.2435 49.1439 8.52613 47.4264 8.52613 45.3155V43.5787ZM22.2827 59.5785H2.42639V58.1387C2.42639 54.5142 5.37515 51.5653 8.99973 51.5653H15.7094C19.3339 51.5653 22.2827 54.5141 22.2827 58.1387V59.5785Z" fill="#2B3240"/>
</svg>
