{
  "title": "Are you a Ticker?",
  "description": "Ticker is an independent contractor who delivers services to others.",
  "button": "Explore jobs",
  "steps": [
    {
      "titleFw": "Explore",
      "title": " jobs",
      "content": "Explore jobs on the website or app. Start looking for jobs meeting your skills",
      "lottie": "slide4"
    },
    {
      "titleFw": "Make an",
      "title": " offer",
      "content": "Found a job? It’s time to send an oﬀer. You will be notified once your oﬀer is accepted",
      "lottie": "slide5"
    },
    {
      "titleFw": "Get ",
      "title": " paid",
      "content": "Once the job is completed, you get paid. Write a review about your experience with the Poster",
      "lottie": "slide6-2"
    }
  ]
}
