{
    "title": "Bike Repair",
    "hasServer": false,
    "meta": {
        "title": "Hire The Best Rated Bike Mechanics In Australia | Get Quotes Today | Jobtick",
        "description": "Need Motorbike Repair Services? Post On Jobtick and Start Getting Offers From Our Top Rated Bike Mechanics",
        "image": "/images/category/bike-repair/hero-background.jpg"
    },
    "topExpert": {
        "title": "Trust our expert Tickers with motorbike repair services",
        "subTitle": "Take a look at our top rated motorcycle mechanics offering services to meet your requirements.",
        "items": [
            {
                "avatar": "/images/category/bike-repair/avatar/1.jpg",
                "rating": "5",
                "location": "Brisbane, QLD",
                "fname": "Mason",
                "lname": "Quinn",
                "registertime": "2020-08-26 07:55:27",
                "phone": "",
                "facebook": "",
                "rates": "38"
            },
            {
                "avatar": "/images/category/bike-repair/avatar/2.jpg",
                "rating": "5",
                "location": "Hill Top, NSW",
                "fname": "Max",
                "lname": "Boyd",
                "registertime": "2021-03-16 12:55:27",
                "phone": "",
                "facebook": "",
                "rates": "17"
            },
            {
                "avatar": "/images/category/bike-repair/avatar/3.jpg",
                "rating": "5",
                "location": "Johanna, VIC",
                "fname": "Victoria",
                "lname": "Pearson",
                "registertime": "2021-02-21 14:30:01",
                "phone": "",
                "facebook": "",
                "rates": "28"
            },
            {
                "avatar": "/images/category/bike-repair/avatar/4.jpg",
                "rating": "5",
                "location": "Melbourne, VIC",
                "fname": "Harry",
                "lname": "Francis",
                "registertime": "2021-04-17 17:50:14",
                "phone": "",
                "facebook": "",
                "rates": "8"
            }
        ]
    },
    "reviews": {
        "subTitle": "Check out a selection of recent reviews from our happy Posters for motorbike repair jobs across Australia. ",
        "items": [
            {
                "rating": 5,
                "fname": "Jack",
                "lname": "Walsman",
                "role": "poster",
                "avatar": "/images/category/bike-repair/review/1.jpg",
                "title": "Clutch repair",
                "message": "After being let down by my garage, I was able to find a Ticker to repair the clutch on my motorbike - would recommend."
            },
            {
                "rating": 5,
                "fname": "Toby ",
                "lname": "Bergman  ",
                "role": "poster",
                "avatar": "/images/category/bike-repair/review/2.jpg",
                "title": "Fluid top up Fluid top up ",
                "message": "Needed a quick top up of fluids on my bike - sorted the same day, very happy with the service and would use again"
            },
            {
                "rating": 5,
                "fname": "Ella",
                "lname": "Miller ",
                "role": "poster ",
                "avatar": "/images/category/bike-repair/review/3.jpg",
                "title": "Tyre change ",
                "message": "I had bought my own tyres but wasn’t sure how to fit them, Ticker sorted it at a fraction of the price quoted by the local garage."
            }
        ]
    },
    "whatInclude": {
        "title": "What does the motorbike repair service include?",
        "subTitle": "Our Tickers can offer a range of motorbike repair services based on your requirements, these include:",
        "items": [
            {
                "title": "Maintenance ",
                "description": "Routine maintenance for your motorbike to ensure it’s safe and performs at its best. "
            },
            {
                "title": "Repairs ",
                "description": "Repairs to any part of your motorbike including tyres, bakes, engine, transmission, suspension, exhaust system, bodywork and more."
            },
            {
                "title": "Bodywork ",
                "description": "Our Tickers can help ensure your bike looks it’s best - with expert detailing, bodywork repairs or a brand new paint job."
            },
            {
                "title": "Emergency repairs ",
                "description": "If you have a bike repair emergency such as a breakdown and need help quickly - our mechanics can offer emergency repairs. "
            }
        ]
    },
    "whyUsingJobtick": {
        "title": "Why hire a motorbike mechanic through Jobtick?",
        "subTitle": "When hiring a bike mechanic through Jobtick, you get a number of benefits compared to using a motorbike garage. ",
        "items": [
            {
                "image": "/vector/category/rate.svg",
                "title": "Get highly rated experts",
                "description": "All of our Tickers can be rated by Posters, meaning that you get full transparency and can choose a Ticker that is highly recommended."
            },
            {
                "image": "/vector/category/budget.svg",
                "title": "Choose your budget ",
                "description": "Jobtick lets you set a budget for the entire project or at an hourly rate, saving you time and money compared to using a motorcycle garage. "
            },
            {
                "image": "/vector/category/insured.svg",
                "title": "Secure & reliable ",
                "description": "With Jobtick acting as the middleman for payments, you only pay when the job is completed and there is no risk of being scammed. "
            },
            {
                "image": "/vector/category/offer.svg",
                "title": "Get offers quickly ",
                "description": "We have hundreds of bike mechanics ready to help with your vehicle repair jobs - post today to start receiving offers. "
            }
        ]
    },
    "recentJobs": {
        "subTitle": "Take a look at the most recent motorbike repair jobs that have been posted on Jobtick."
    },
    "FAQ": {
        "title": "Motorbike repair jobs - frequently asked questions ",
        "items": [
            {
                "question": "What jobs can a bike mechanic do?",
                "answer": "Bike mechanics can perform several different jobs such as bodywork repairs, maintenance, servicing, oil changes, fluid top ups, light changes, battery changes and much more."
            },
            {
                "question": "What brand of bike can the Tickers work with?",
                "answer": "Our Tickers have experience with all brands of motorbike including Yamaha, Harley-Davidson, Kawasaki, Honda, BMW and many more. Be sure to specify the type of motorbike you have to attract offers from the right Tickers. "
            },
            {
                "question": "Will the mechanic bring their own tools and equipment?",
                "answer": "As motorbike repair requires specialist tools, most bike mechanics will provide their own equipment for each job. If this is not the case then the Ticker will provide this information to you in their offer."
            },
            {
                "question": "Can you offer same-day callouts?",
                "answer": "Yes, if you have a motorbike emergency that needs dealing with quickly, some of our Tickers can provide a same-day service - post now to start getting offers. "
            },
            {
                "question": "How long does it take to post a motorbike repair job?",
                "answer": "Posting a motorbike repair job on Jobtick takes just a few minutes and you could start receiving offers from Tickers straight away. To post your first job, sign up today on our website or through our app. "
            }
        ]
    },
    "related": [
        {
            "name": "Auto repair",
            "url": "/auto-repair"
        },
        {
            "name": "Car wash",
            "url": "/car-wash"
        }
    ],
    "schema": {
        "@context": "https://schema.org/", 
        "@type": "Product", 
        "name": "Bike Repair Services",
        "image": "https://www.jobtick.com/_next/image?url=%2Fimages%2Fcategory%2Fbike-repair%2Fhero-background.jpg&w=1920&q=100",
        "description": "Need Motorbike Repair Services? Post On Jobtick and Start Getting Offers From Our Top Rated Bike Mechanics.",
        "brand": "Jobtick",
        "aggregateRating": {
            "@type": "AggregateRating",
            "ratingValue": "5",
            "bestRating": "5",
            "worstRating": "4.8",
            "ratingCount": "83"
        }
    }
}