{
    "title": "Computer Repairs",
    "hasServer": false,
    "meta": {
        "title": "Computer Repair Help Australia | Post Your Job Today | Jobtick",
        "description": "Need Help With a Computer Repair? Post Your Job On Jobtick Today and Get It Done Fast By Our Computer Technicians.",
        "image": "/images/category/computer-repairs/hero-background.jpg"
    },
    "topExpert": {
        "title": "Trust our computer experts with professional repairs",
        "subTitle": "Is your computer in need of a repair? Our Tickers can help. ",
        "items": [
            {
                "avatar": "/images/category/computer-repairs/avatar/1.jpg",
                "rating": "5",
                "location": "Sandy Bay, TAS",
                "fname": "Anna",
                "lname": "Clark",
                "registertime": "2021-04-15 12:55:27",
                "phone": "",
                "facebook": "",
                "rates": "7"
            },
            {
                "avatar": "/images/category/computer-repairs/avatar/2.jpg",
                "rating": "5",
                "location": "Tascott, NSW",
                "fname": "Jacob",
                "lname": "Scott",
                "registertime": "2021-03-21 12:55:27",
                "phone": "",
                "facebook": "",
                "rates": "14"
            },
            {
                "avatar": "/images/category/computer-repairs/avatar/3.jpg",
                "rating": "5",
                "location": "Olympic Dam, SA",
                "fname": "Elena",
                "lname": "Mitchell",
                "registertime": "2021-01-21 14:30:01",
                "phone": "",
                "facebook": "",
                "rates": "20"
            },
            {
                "avatar": "/images/category/computer-repairs/avatar/4.jpg",
                "rating": "5",
                "location": "Hill Top, NSW",
                "fname": "George",
                "lname": "Stewart",
                "registertime": "2020-08-02 17:50:14",
                "phone": "",
                "facebook": "",
                "rates": "15"
            }
        ]
    },
    "reviews": {
        "subTitle": "Check out a selection of recent reviews from our happy Posters for computer repair jobs across Australia. ",
        "items": [
            {
                "id": 5,
                "fname": "Jared ",
                "lname": "Kodey ",
                "role": "poster",
                "avatar": "/images/category/computer-repairs/review/1.jpg",
                "title": "Blue screen of death fixed! ",
                "message": "When I got the ‘blue screen of death’ on my laptop, I thought I would have to get rid of it. But after a quick post on Jobtick it was fixed the very same day!"
            },
            {
                "id": 5,
                "fname": "Henry  ",
                "lname": "Pearce ",
                "role": "poster",
                "avatar": "/images/category/computer-repairs/review/2.jpg",
                "title": "Hooray for Jobtick ",
                "message": "After being serviced, my computer is now running so much quicker than before - highly recommend Jobtick for computer support."
            },
            {
                "id": 5,
                "fname": "Natalie ",
                "lname": "Adams ",
                "role": "poster",
                "avatar": "/images/category/computer-repairs/review/3.jpg",
                "title": "Found and fixed the issue ",
                "message": "My Ticker was able to fix an issue with my hard drive which the last IT technician could not figure out."
            }
        ]
    },
    "whatInclude": {
        "title": "What does the computer repair service include?",
        "subTitle": "Our Tickers can offer a range of computer repair services based on your requirements, these include:",
        "items": [
            {
                "title": "Hardware ",
                "description": "If your computer or laptop needs a component repair or a new part fitting."
            },
            {
                "title": "Software ",
                "description": "Installing and configuring or troubleshooting software on your device."
            },
            {
                "title": "Antivirus  ",
                "description": "If your computer has a virus, our Tickers can help protect and clean your system to remove the threat."
            },
            {
                "title": "Remote support ",
                "description": "Our experts can offer computer support remotely - saving time and cost on transport. "
            }
        ]
    },
    "whyUsingJobtick": {
        "title": "Why hire a computer expert through Jobtick?",
        "subTitle": "When hiring a computer technician through Jobtick, you get a number of benefits compared to using a traditional IT company.",
        "items": [
            {
                "image": "/vector/category/rate.svg",
                "title": "Get highly rated experts",
                "description": "All of our Tickers can be rated by Posters, meaning that you get full transparency and can choose a Ticker that is highly recommended."
            },
            {
                "image": "/vector/category/budget.svg",
                "title": "Choose your budget ",
                "description": "Jobtick lets you set a budget for the entire project or at an hourly rate, saving you the huge costs that are usually charged by IT providers and repair shops. "
            },
            {
                "image": "/vector/category/insured.svg",
                "title": "Secure & reliable ",
                "description": "With Jobtick acting as the middleman for payments, you only pay when the job is completed and there is no risk of being scammed. "
            },
            {
                "image": "/vector/category/offer.svg",
                "title": "Get offers quickly ",
                "description": "We have hundreds of computer technicians ready to help with your computer repairs - post your job today to start receiving offers."
            }
        ]
    },
    "recentJobs": {
        "subTitle": "Take a look at the most recent computer repair jobs that have been posted on Jobtick."
    },
    "FAQ": {
        "title": "Computer repair jobs - frequently asked questions ",
        "items": [
            {
                "question": "Can Tickers help businesses? ",
                "answer": "Yes. If your business needs computer repairs, using a Ticker could potentially save you hundreds of dollars compared to using an IT provider. "
            },
            {
                "question": "What are some common problems with computers?",
                "answer": "Some of the most common problems that our Tickers can fix are dead battery, cracked screen, computer crashing, software bugs, faulty hardware, viruses including ransomware and much more."
            },
            {
                "question": "How much do computer repairs cost? ",
                "answer": "The cost of computer repairs will vary depending on factors such as what needs doing, what skill level is required, if any parts are required for the fix and how long the repair will take."
            },
            {
                "question": "How long will it take?",
                "answer": "This will depend on how long the job takes and what skills are required. For example, something like fitting a new battery or upgrading the RAM will be quicker than rebuilding a PC."
            },
            {
                "question": "Can you offer same-day appointments? ",
                "answer": "Yes, many of our Tickers can often offer same-day support for computer repairs."
            }
        ]
    },
    "related": [
        {
            "name": "Computer and technology",
            "url": "/computer-and-tech"
        },
        {
            "name": "Graphic and design",
            "url": "/graphic-and-design"
        }
    ],
    "schema": {
        "@context": "https://schema.org/", 
        "@type": "Product", 
        "name": "Computer Repair Services",
        "image": "https://www.jobtick.com/_next/image?url=%2Fimages%2Fcategory%2Fcomputer-repairs%2Fhero-background.jpg&w=1920&q=100",
        "description": "Need Help With a Computer Repair? Post Your Job On Jobtick Today and Get It Done Fast By Our Computer Technicians.",
        "brand": "Jobtick",
        "aggregateRating": {
            "@type": "AggregateRating",
            "ratingValue": "5",
            "bestRating": "5",
            "worstRating": "4.9",
            "ratingCount": "97"
        }
    }
}