{
    "title": "Lawn Care",
    "hasServer": false,
    "meta": {
        "title": "Hire a Lawn Care Expert In Australia | Post Your Job Today | Jobtick",
        "description": "Looking For a Professional To Take Care of Your Lawn? Post Your Gardening Job Today and Start Getting Offers",
        "image": "/images/category/lawn-care/hero-background.jpg"
    },
    "topExpert": {
        "title": "Trust our professional gardeners with lawn care services",
        "subTitle": "Take a look at the top rated lawn care professionals in your area.",
        "items": [
            {
                "avatar": "/images/category/lawn-care/avatar/1.jpg",
                "rating": "5",
                "location": "Redfern, NSW",
                "fname": "Thomas",
                "lname": "Morgan",
                "registertime": "2021-04-26 07:55:27",
                "phone": "",
                "facebook": "",
                "rates": "3"
            },
            {
                "avatar": "/images/category/lawn-care/avatar/2.jpg",
                "rating": "5",
                "location": "Hillbank, SA",
                "fname": "Clara",
                "lname": "Gray",
                "registertime": "2021-03-18 12:55:27",
                "phone": "",
                "facebook": "",
                "rates": "14"
            },
            {
                "avatar": "/images/category/lawn-care/avatar/3.jpg",
                "rating": "5",
                "location": "Traralgon, VIC",
                "fname": "Archer",
                "lname": "Parker",
                "registertime": "2021-03-12 14:30:01",
                "phone": "",
                "facebook": "",
                "rates": "8"
            },
            {
                "avatar": "/images/category/lawn-care/avatar/4.jpg",
                "rating": "5",
                "location": "Klemzig, SA",
                "fname": "Lara",
                "lname": "Adams",
                "registertime": "2021-01-09 17:50:14",
                "phone": "",
                "facebook": "",
                "rates": "24"
            }
        ]
    },
    "reviews": {
        "subTitle": "Check out a selection of recent reviews from our happy Posters for lawn care services across Australia. ",
        "items": [
            {
                "rating": 5,
                "fname": "Cooper",
                "lname": "Wall ",
                "role": "poster",
                "avatar": "/images/category/lawn-care/review/1.jpg",
                "title": "Great communication ",
                "message": "A difficult job that was made much easier by my Ticker’s skills and excellent communication throughout. I would use this service again."
            },
            {
                "rating": 5,
                "fname": "Simon ",
                "lname": "Kane ",
                "role": "poster",
                "avatar": "/images/category/lawn-care/review/2.jpg",
                "title": "Faster & easier ",
                "message": "Using Jobtick saves me the time and effort of scouring through lawn care service websites and getting several expensive quotes."
            },
            {
                "rating": 5,
                "fname": "Jade",
                "lname": "Ross  ",
                "role": "poster ",
                "avatar": "/images/category/lawn-care/review/3.jpg",
                "title": "My lawn looks fantastic ",
                "message": "My lawn has been given a complete overhaul and now looks so professional - I’ve booked in to have it done next month as well!"
            }
        ]
    },
    "whatInclude": {
        "title": "What does the lawn care service include?",
        "subTitle": "Our Tickers can offer a range of lawn care services based on your requirements, these include:",
        "items": [
            {
                "title": "Mowing ",
                "description": "Need your lawn professionally mowing? Our Tickers can help with one off or regular one off mowing."
            },
            {
                "title": "Fertilising & Watering ",
                "description": "Struggling to get that luscious green grass you want? Regular watering and fertilising from a lawn care expert can help keep your lawn looking healthy all year round."
            },
            {
                "title": "Weeding ",
                "description": "If weeds are growing out of control in your garden, our lawn care experts can weed your garden without damaging your other plants."
            },
            {
                "title": "Clearance ",
                "description": "Has your garden become overgrown and unusable? Hire an expert to come and clear your garden and allow you to enjoy your outdoor space again."
            }
        ]
    },
    "whyUsingJobtick": {
        "title": "Why hire a lawn care expert through Jobtick?",
        "subTitle": "When using Jobtick for lawn care services, you get a number of benefits compared to using a lawn care company.",
        "items": [
            {
                "image": "/vector/category/rate.svg",
                "title": "Get highly rated experts",
                "description": "All of our Tickers can be rated by Posters, meaning that you get full transparency and can choose a Ticker that is highly recommended."
            },
            {
                "image": "/vector/category/budget.svg",
                "title": "Choose your budget ",
                "description": "Jobtick lets you set a budget for the entire project or at an hourly rate, saving you lots on the normal fees charged by lawn care companies. "
            },
            {
                "image": "/vector/category/insured.svg",
                "title": "Secure & reliable ",
                "description": "With Jobtick acting as the middleman for payments, you only pay when the job is completed and there is no risk of being scammed. "
            },
            {
                "image": "/vector/category/offer.svg",
                "title": "Get offers quickly ",
                "description": "We have hundreds of lawn care experts ready to help with your outdoor space - post a job today to start receiving offers. "
            }
        ]
    },
    "recentJobs": {
        "subTitle": "Take a look at the latest lawn care jobs that have been posted on Jobtick."
    },
    "FAQ": {
        "title": "Lawn care jobs - frequently asked questions ",
        "items": [
            {
                "question": "I’m going on holiday - can you help?",
                "answer": "Of course. If you are heading on holiday the last thing you want is to come home to an overgrown or dead lawn. Our Tickers can help with regular lawn care services whilst you are away to ensure your lawn stays looking its best."
            },
            {
                "question": "Can Tickers provide a regular service?",
                "answer": "Yes, if you need a regular lawn care service, our Tickers can help. Specify your requirements when posting the job to get offers from the right people."
            },
            {
                "question": "Will the Ticker bring their own tools and equipment?",
                "answer": "Yes, our lawn care experts can provide all of their own tools and equipment to get the job done. If you have tools that you would like the Ticker to use, be sure to specify this when posting."
            },
            {
                "question": "Can Tickers help with other gardening services?",
                "answer": "As well as lawn care services, our Tickers can help with other related services including gardening and landscaping - check out the dedicated pages for these services to find out more."
            },
            {
                "question": "How long does it take to post a lawn care job?",
                "answer": "Posting a lawn care job on Jobtick takes just a few minutes and you could start receiving offers from Tickers straight away. To post your first job, sign up today on our website or through our app."
            }
        ]
    },
    "related": [
        {
            "name": "Gardener",
            "url": "/gardener"
        },
        {
            "name": "Home services",
            "url": "/home-services"
        },
        {
            "name": "Pest control",
            "url": "/pest-control"
        },
        {
            "name": "Landscaper",
            "url": "/landscaper"
        },
        {
            "name": "Fencing",
            "url": "/fencing"
        }
    ],
    "schema": {
        "@context": "https://schema.org/", 
        "@type": "Product", 
        "name": "Lawn Care Services",
        "image": "https://www.jobtick.com/_next/image?url=%2Fimages%2Fcategory%2Flawn-care%2Fhero-background.jpg&w=1920&q=100",
        "description": "Looking For a Professional To Take Care of Your Lawn? Post Your Gardening Job Today and Start Getting Offers.",
        "brand": "Jobtick",
        "aggregateRating": {
            "@type": "AggregateRating",
            "ratingValue": "5",
            "bestRating": "5",
            "worstRating": "4.8",
            "ratingCount": "99"
        }
    }
}