<svg width="17" height="20" viewBox="0 0 17 20" fill="none" xmlns="http://www.w3.org/2000/svg">
<path d="M13.5748 10.6051C13.6029 13.626 16.225 14.6313 16.254 14.6441C16.2318 14.715 15.835 16.0767 14.8726 17.4832C14.0406 18.6993 13.177 19.9109 11.8167 19.9359C10.4802 19.9606 10.0504 19.1434 8.52224 19.1434C6.99456 19.1434 6.51703 19.9109 5.25176 19.9606C3.93875 20.0103 2.93887 18.6457 2.10002 17.434C0.385731 14.9557 -0.924301 10.4309 0.834747 7.37651C1.70859 5.85968 3.2703 4.89924 4.96529 4.8746C6.25462 4.85003 7.47163 5.74203 8.25982 5.74203C9.04751 5.74203 10.5264 4.66933 12.0812 4.82686C12.732 4.85397 14.559 5.08971 15.7321 6.80692C15.6375 6.86552 13.5521 8.07956 13.5748 10.6051V10.6051ZM11.0629 3.18724C11.76 2.34343 12.2292 1.16883 12.1012 0C11.0963 0.040381 9.88135 0.669587 9.16059 1.51289C8.51468 2.25975 7.94903 3.45505 8.10167 4.6007C9.22167 4.68737 10.3658 4.03156 11.0629 3.18724" fill="black"/>
</svg>
