<?xml version="1.0" encoding="utf-8"?>
<!-- Generator: Adobe Illustrator 17.0.0, SVG Export Plug-In . SVG Version: 6.00 Build 0)  -->
<!DOCTYPE svg PUBLIC "-//W3C//DTD SVG 1.1//EN" "http://www.w3.org/Graphics/SVG/1.1/DTD/svg11.dtd">
<svg version="1.1" id="Layer_1" xmlns="http://www.w3.org/2000/svg" xmlns:xlink="http://www.w3.org/1999/xlink" x="0px" y="0px"
	 width="283px" height="186px" viewBox="0 0 283 186" enable-background="new 0 0 283 186" xml:space="preserve">
<path fill="#EDEDED" d="M102.807,2.02c1.906,0,3.451-1.545,3.451-3.451c0-1.906-1.545-3.451-3.451-3.451s-3.451,1.545-3.451,3.451
	C99.355,0.474,100.901,2.02,102.807,2.02z"/>
<path fill="#EDEDED" d="M88.2,16.203c1.672,0,3.028-1.356,3.028-3.028s-1.356-3.028-3.028-3.028s-3.028,1.356-3.028,3.028
	S86.528,16.203,88.2,16.203z"/>
<path fill="#EDEDED" d="M73.616,30.342c1.427,0,2.583-1.156,2.583-2.583c0-1.427-1.156-2.583-2.583-2.583
	c-1.426,0-2.583,1.156-2.583,2.583C71.033,29.185,72.19,30.342,73.616,30.342z"/>
<path fill="#EDEDED" d="M59.032,44.503c1.193,0,2.16-0.967,2.16-2.16c0-1.193-0.967-2.16-2.16-2.16c-1.193,0-2.16,0.967-2.16,2.16
	C56.872,43.536,57.839,44.503,59.032,44.503z"/>
<path fill="#EDEDED" d="M44.448,58.665c0.959,0,1.737-0.778,1.737-1.737c0-0.959-0.778-1.737-1.737-1.737
	c-0.959,0-1.737,0.778-1.737,1.737C42.711,57.888,43.488,58.665,44.448,58.665z"/>
<path fill="#EDEDED" d="M29.863,72.804c0.713,0,1.292-0.578,1.292-1.291c0-0.713-0.578-1.291-1.292-1.291
	c-0.713,0-1.291,0.578-1.291,1.291C28.572,72.226,29.15,72.804,29.863,72.804z"/>
<path fill="#EDEDED" d="M15.257,86.987c0.48,0,0.868-0.389,0.868-0.868c0-0.48-0.389-0.868-0.868-0.868
	c-0.479,0-0.868,0.389-0.868,0.868C14.389,86.599,14.778,86.987,15.257,86.987z"/>
<path fill="#EDEDED" d="M0.673,101.126c0.234,0,0.423-0.189,0.423-0.423c0-0.234-0.189-0.423-0.423-0.423s-0.423,0.189-0.423,0.423
	C0.25,100.937,0.439,101.126,0.673,101.126z"/>
<path fill="#EDEDED" d="M133.088,3.557c2.14,0,3.875-1.735,3.875-3.874s-1.735-3.874-3.875-3.874c-2.139,0-3.874,1.735-3.874,3.874
	S130.949,3.557,133.088,3.557z"/>
<path fill="#EDEDED" d="M118.504,17.741c1.906,0,3.451-1.545,3.451-3.451c0-1.906-1.545-3.451-3.451-3.451
	c-1.906,0-3.451,1.545-3.451,3.451C115.053,16.195,116.598,17.741,118.504,17.741z"/>
<path fill="#EDEDED" d="M103.898,31.9c1.672,0,3.028-1.356,3.028-3.028c0-1.672-1.356-3.028-3.028-3.028
	c-1.673,0-3.028,1.356-3.028,3.028C100.87,30.544,102.225,31.9,103.898,31.9z"/>
<path fill="#EDEDED" d="M89.314,46.039c1.427,0,2.583-1.156,2.583-2.583c0-1.427-1.156-2.583-2.583-2.583
	c-1.426,0-2.583,1.156-2.583,2.583C86.731,44.882,87.887,46.039,89.314,46.039z"/>
<path fill="#EDEDED" d="M74.73,60.2c1.193,0,2.16-0.967,2.16-2.16c0-1.193-0.967-2.16-2.16-2.16s-2.16,0.967-2.16,2.16
	C72.57,59.234,73.537,60.2,74.73,60.2z"/>
<path fill="#EDEDED" d="M60.145,74.362c0.959,0,1.737-0.778,1.737-1.737c0-0.959-0.778-1.737-1.737-1.737
	c-0.959,0-1.737,0.778-1.737,1.737C58.408,73.585,59.186,74.362,60.145,74.362z"/>
<path fill="#EDEDED" d="M45.561,88.501c0.713,0,1.291-0.578,1.291-1.291c0-0.713-0.578-1.291-1.291-1.291s-1.291,0.578-1.291,1.291
	C44.27,87.923,44.848,88.501,45.561,88.501z"/>
<path fill="#EDEDED" d="M30.955,102.684c0.48,0,0.868-0.389,0.868-0.868c0-0.48-0.389-0.868-0.868-0.868
	c-0.48,0-0.868,0.388-0.868,0.868C30.086,102.295,30.475,102.684,30.955,102.684z"/>
<path fill="#EDEDED" d="M16.371,116.823c0.234,0,0.423-0.189,0.423-0.423s-0.189-0.423-0.423-0.423
	c-0.234,0-0.423,0.189-0.423,0.423S16.137,116.823,16.371,116.823z"/>
<path fill="#EDEDED" d="M163.37,5.115c2.385,0,4.319-1.934,4.319-4.32c0-2.386-1.934-4.32-4.319-4.32c-2.386,0-4.32,1.934-4.32,4.32
	C159.05,3.181,160.984,5.115,163.37,5.115z"/>
<path fill="#EDEDED" d="M148.786,19.254c2.139,0,3.874-1.735,3.874-3.874s-1.735-3.874-3.874-3.874c-2.14,0-3.875,1.734-3.875,3.874
	S146.646,19.254,148.786,19.254z"/>
<path fill="#EDEDED" d="M134.201,33.438c1.906,0,3.452-1.545,3.452-3.451c0-1.906-1.546-3.451-3.452-3.451
	c-1.906,0-3.451,1.545-3.451,3.451C130.75,31.892,132.295,33.438,134.201,33.438z"/>
<path fill="#EDEDED" d="M119.595,47.597c1.672,0,3.028-1.356,3.028-3.028c0-1.672-1.356-3.028-3.028-3.028
	c-1.672,0-3.028,1.356-3.028,3.028C116.567,46.241,117.923,47.597,119.595,47.597z"/>
<path fill="#EDEDED" d="M105.011,61.736c1.427,0,2.583-1.156,2.583-2.583s-1.156-2.583-2.583-2.583
	c-1.426,0-2.583,1.156-2.583,2.583S103.585,61.736,105.011,61.736z"/>
<path fill="#EDEDED" d="M90.427,75.897c1.193,0,2.16-0.967,2.16-2.16c0-1.193-0.967-2.16-2.16-2.16c-1.193,0-2.16,0.967-2.16,2.16
	C88.267,74.93,89.234,75.897,90.427,75.897z"/>
<path fill="#EDEDED" d="M75.842,90.059c0.959,0,1.737-0.778,1.737-1.737c0-0.959-0.778-1.737-1.737-1.737
	c-0.959,0-1.737,0.778-1.737,1.737C74.106,89.282,74.883,90.059,75.842,90.059z"/>
<path fill="#EDEDED" d="M61.258,104.198c0.713,0,1.291-0.578,1.291-1.292c0-0.713-0.578-1.291-1.291-1.291
	c-0.713,0-1.292,0.578-1.292,1.291C59.967,103.62,60.545,104.198,61.258,104.198z"/>
<path fill="#EDEDED" d="M46.652,118.381c0.48,0,0.868-0.389,0.868-0.868c0-0.48-0.389-0.868-0.868-0.868s-0.868,0.388-0.868,0.868
	C45.784,117.992,46.173,118.381,46.652,118.381z"/>
<path fill="#EDEDED" d="M32.068,132.52c0.234,0,0.423-0.189,0.423-0.423s-0.189-0.423-0.423-0.423c-0.234,0-0.423,0.189-0.423,0.423
	S31.834,132.52,32.068,132.52z"/>
<path fill="#EDEDED" d="M193.651,6.653c2.62,0,4.743-2.123,4.743-4.743c0-2.619-2.123-4.743-4.743-4.743
	c-2.619,0-4.742,2.123-4.742,4.743C188.909,4.53,191.032,6.653,193.651,6.653z"/>
<path fill="#EDEDED" d="M179.067,20.815c2.386,0,4.32-1.934,4.32-4.319c0-2.386-1.934-4.32-4.32-4.32s-4.319,1.934-4.319,4.32
	C174.748,18.881,176.681,20.815,179.067,20.815z"/>
<path fill="#EDEDED" d="M164.483,34.953c2.14,0,3.874-1.735,3.874-3.874s-1.734-3.874-3.874-3.874s-3.874,1.734-3.874,3.874
	S162.343,34.953,164.483,34.953z"/>
<path fill="#EDEDED" d="M149.899,49.137c1.906,0,3.451-1.545,3.451-3.451c0-1.906-1.545-3.451-3.451-3.451
	c-1.906,0-3.451,1.545-3.451,3.451C146.448,47.592,147.993,49.137,149.899,49.137z"/>
<path fill="#EDEDED" d="M135.293,63.296c1.672,0,3.028-1.356,3.028-3.028c0-1.672-1.356-3.028-3.028-3.028
	c-1.673,0-3.029,1.356-3.029,3.028C132.264,61.94,133.62,63.296,135.293,63.296z"/>
<path fill="#EDEDED" d="M120.709,77.435c1.426,0,2.582-1.156,2.582-2.583c0-1.427-1.156-2.583-2.582-2.583
	c-1.427,0-2.583,1.156-2.583,2.583C118.126,76.279,119.282,77.435,120.709,77.435z"/>
<path fill="#EDEDED" d="M106.124,91.597c1.193,0,2.16-0.967,2.16-2.16c0-1.193-0.967-2.16-2.16-2.16
	c-1.192,0-2.159,0.967-2.159,2.16C103.965,90.63,104.932,91.597,106.124,91.597z"/>
<path fill="#EDEDED" d="M91.54,105.758c0.959,0,1.737-0.777,1.737-1.736c0-0.96-0.778-1.737-1.737-1.737
	c-0.959,0-1.737,0.777-1.737,1.737C89.803,104.981,90.581,105.758,91.54,105.758z"/>
<path fill="#EDEDED" d="M76.956,119.919c0.713,0,1.291-0.578,1.291-1.292c0-0.713-0.578-1.291-1.291-1.291
	c-0.713,0-1.291,0.578-1.291,1.291C75.665,119.341,76.243,119.919,76.956,119.919z"/>
<path fill="#EDEDED" d="M62.372,134.08c0.48,0,0.868-0.388,0.868-0.868c0-0.479-0.389-0.868-0.868-0.868s-0.868,0.389-0.868,0.868
	C61.503,133.692,61.892,134.08,62.372,134.08z"/>
<path fill="#EDEDED" d="M47.765,148.219c0.234,0,0.423-0.189,0.423-0.423c0-0.233-0.189-0.423-0.423-0.423
	c-0.234,0-0.423,0.19-0.423,0.423C47.342,148.03,47.532,148.219,47.765,148.219z"/>
<path fill="#EDEDED" d="M223.933,8.211c2.865,0,5.188-2.323,5.188-5.188c0-2.865-2.323-5.188-5.188-5.188s-5.188,2.323-5.188,5.188
	C218.745,5.888,221.068,8.211,223.933,8.211z"/>
<path fill="#EDEDED" d="M209.349,22.35c2.619,0,4.742-2.123,4.742-4.743s-2.123-4.743-4.742-4.743c-2.62,0-4.743,2.123-4.743,4.743
	S206.729,22.35,209.349,22.35z"/>
<path fill="#EDEDED" d="M194.764,36.509c2.386,0,4.32-1.934,4.32-4.32c0-2.386-1.934-4.32-4.32-4.32
	c-2.385,0-4.319,1.934-4.319,4.32C190.445,34.576,192.379,36.509,194.764,36.509z"/>
<path fill="#EDEDED" d="M180.18,50.648c2.14,0,3.875-1.735,3.875-3.874c0-2.14-1.735-3.874-3.875-3.874
	c-2.139,0-3.874,1.735-3.874,3.874C176.306,48.914,178.041,50.648,180.18,50.648z"/>
<path fill="#EDEDED" d="M165.596,64.832c1.906,0,3.451-1.545,3.451-3.451c0-1.906-1.545-3.451-3.451-3.451
	c-1.906,0-3.451,1.545-3.451,3.451C162.145,63.286,163.69,64.832,165.596,64.832z"/>
<path fill="#EDEDED" d="M150.99,78.993c1.672,0,3.028-1.356,3.028-3.028c0-1.673-1.356-3.028-3.028-3.028
	c-1.673,0-3.028,1.356-3.028,3.028C147.962,77.637,149.317,78.993,150.99,78.993z"/>
<path fill="#EDEDED" d="M136.406,93.132c1.426,0,2.583-1.156,2.583-2.583s-1.157-2.583-2.583-2.583
	c-1.427,0-2.583,1.156-2.583,2.583S134.979,93.132,136.406,93.132z"/>
<path fill="#EDEDED" d="M121.822,107.294c1.192,0,2.159-0.967,2.159-2.16s-0.967-2.16-2.159-2.16c-1.193,0-2.16,0.967-2.16,2.16
	S120.629,107.294,121.822,107.294z"/>
<path fill="#EDEDED" d="M107.237,121.455c0.959,0,1.737-0.777,1.737-1.736c0-0.96-0.778-1.737-1.737-1.737s-1.737,0.777-1.737,1.737
	C105.5,120.678,106.278,121.455,107.237,121.455z"/>
<path fill="#EDEDED" d="M92.653,135.616c0.713,0,1.292-0.578,1.292-1.292c0-0.713-0.578-1.291-1.292-1.291
	c-0.713,0-1.291,0.578-1.291,1.291C91.362,135.038,91.94,135.616,92.653,135.616z"/>
<path fill="#EDEDED" d="M78.069,149.777c0.479,0,0.868-0.388,0.868-0.868c0-0.479-0.389-0.868-0.868-0.868
	c-0.48,0-0.868,0.389-0.868,0.868C77.201,149.389,77.59,149.777,78.069,149.777z"/>
<path fill="#EDEDED" d="M63.463,163.916c0.234,0,0.423-0.189,0.423-0.423c0-0.233-0.189-0.423-0.423-0.423s-0.423,0.19-0.423,0.423
	C63.04,163.727,63.229,163.916,63.463,163.916z"/>
<path fill="#EDEDED" d="M254.237,9.746c3.099,0,5.611-2.512,5.611-5.611s-2.512-5.611-5.611-5.611s-5.611,2.512-5.611,5.611
	S251.138,9.746,254.237,9.746z"/>
<path fill="#EDEDED" d="M239.631,23.908c2.865,0,5.188-2.323,5.188-5.188c0-2.865-2.323-5.188-5.188-5.188
	c-2.866,0-5.188,2.323-5.188,5.188C234.443,21.585,236.765,23.908,239.631,23.908z"/>
<path fill="#EDEDED" d="M225.046,38.047c2.619,0,4.743-2.123,4.743-4.743s-2.124-4.743-4.743-4.743
	c-2.619,0-4.743,2.123-4.743,4.743S222.427,38.047,225.046,38.047z"/>
<path fill="#EDEDED" d="M210.462,52.206c2.386,0,4.32-1.934,4.32-4.32c0-2.386-1.934-4.32-4.32-4.32
	c-2.385,0-4.319,1.934-4.319,4.32C206.143,50.272,208.077,52.206,210.462,52.206z"/>
<path fill="#EDEDED" d="M195.878,66.345c2.14,0,3.874-1.735,3.874-3.874s-1.734-3.874-3.874-3.874s-3.874,1.735-3.874,3.874
	S193.738,66.345,195.878,66.345z"/>
<path fill="#EDEDED" d="M181.294,80.529c1.906,0,3.451-1.545,3.451-3.451c0-1.906-1.545-3.451-3.451-3.451
	c-1.906,0-3.451,1.545-3.451,3.451C177.843,78.983,179.388,80.529,181.294,80.529z"/>
<path fill="#EDEDED" d="M166.71,94.69c1.672,0,3.028-1.356,3.028-3.028c0-1.672-1.356-3.028-3.028-3.028
	c-1.673,0-3.028,1.356-3.028,3.028C163.682,93.334,165.037,94.69,166.71,94.69z"/>
<path fill="#EDEDED" d="M152.103,108.829c1.427,0,2.583-1.156,2.583-2.583c0-1.426-1.156-2.583-2.583-2.583
	c-1.426,0-2.582,1.157-2.582,2.583C149.521,107.673,150.677,108.829,152.103,108.829z"/>
<path fill="#EDEDED" d="M137.519,122.991c1.193,0,2.16-0.967,2.16-2.16s-0.967-2.16-2.16-2.16c-1.193,0-2.16,0.967-2.16,2.16
	S136.326,122.991,137.519,122.991z"/>
<path fill="#EDEDED" d="M122.935,137.152c0.959,0,1.737-0.777,1.737-1.736c0-0.96-0.778-1.737-1.737-1.737s-1.737,0.777-1.737,1.737
	C121.198,136.375,121.976,137.152,122.935,137.152z"/>
<path fill="#EDEDED" d="M108.351,151.313c0.713,0,1.291-0.578,1.291-1.292c0-0.713-0.578-1.291-1.291-1.291
	c-0.713,0-1.292,0.578-1.292,1.291C107.059,150.735,107.638,151.313,108.351,151.313z"/>
<path fill="#EDEDED" d="M93.767,165.474c0.479,0,0.868-0.388,0.868-0.868c0-0.479-0.389-0.868-0.868-0.868
	c-0.48,0-0.868,0.389-0.868,0.868C92.898,165.086,93.287,165.474,93.767,165.474z"/>
<path fill="#EDEDED" d="M79.16,179.613c0.234,0,0.423-0.189,0.423-0.423c0-0.233-0.189-0.423-0.423-0.423
	c-0.234,0-0.423,0.19-0.423,0.423C78.737,179.424,78.927,179.613,79.16,179.613z"/>
<path fill="#EDEDED" d="M284.519,11.282c3.332,0,6.034-2.702,6.034-6.034c0-3.333-2.702-6.034-6.034-6.034
	c-3.333,0-6.034,2.702-6.034,6.034C278.485,8.58,281.186,11.282,284.519,11.282z"/>
<path fill="#EDEDED" d="M269.934,25.444c3.099,0,5.611-2.512,5.611-5.611s-2.512-5.611-5.611-5.611
	c-3.098,0-5.611,2.512-5.611,5.611S266.836,25.444,269.934,25.444z"/>
<path fill="#EDEDED" d="M255.35,39.605c2.866,0,5.188-2.323,5.188-5.188c0-2.865-2.322-5.188-5.188-5.188
	c-2.865,0-5.188,2.323-5.188,5.188C250.162,37.282,252.485,39.605,255.35,39.605z"/>
<path fill="#EDEDED" d="M240.744,53.744c2.619,0,4.742-2.123,4.742-4.743s-2.123-4.743-4.742-4.743s-4.743,2.123-4.743,4.743
	S238.125,53.744,240.744,53.744z"/>
<path fill="#EDEDED" d="M226.16,67.903c2.385,0,4.319-1.934,4.319-4.32c0-2.386-1.934-4.32-4.319-4.32
	c-2.386,0-4.32,1.934-4.32,4.32C221.84,65.969,223.774,67.903,226.16,67.903z"/>
<path fill="#EDEDED" d="M211.575,82.066c2.14,0,3.875-1.735,3.875-3.874c0-2.14-1.735-3.874-3.875-3.874
	c-2.139,0-3.874,1.735-3.874,3.874C207.701,80.332,209.436,82.066,211.575,82.066z"/>
<path fill="#EDEDED" d="M196.992,96.226c1.906,0,3.451-1.545,3.451-3.451c0-1.906-1.545-3.451-3.451-3.451
	c-1.907,0-3.452,1.545-3.452,3.451C193.54,94.68,195.085,96.226,196.992,96.226z"/>
<path fill="#EDEDED" d="M182.407,110.387c1.673,0,3.028-1.356,3.028-3.028c0-1.672-1.355-3.028-3.028-3.028
	c-1.672,0-3.028,1.356-3.028,3.028C179.379,109.031,180.735,110.387,182.407,110.387z"/>
<path fill="#EDEDED" d="M167.801,124.526c1.426,0,2.583-1.156,2.583-2.583c0-1.426-1.157-2.583-2.583-2.583
	c-1.427,0-2.583,1.157-2.583,2.583C165.218,123.37,166.374,124.526,167.801,124.526z"/>
<path fill="#EDEDED" d="M153.217,138.688c1.193,0,2.16-0.967,2.16-2.16s-0.967-2.16-2.16-2.16c-1.193,0-2.16,0.967-2.16,2.16
	S152.024,138.688,153.217,138.688z"/>
<path fill="#EDEDED" d="M138.632,152.849c0.96,0,1.737-0.777,1.737-1.736c0-0.96-0.777-1.737-1.737-1.737
	c-0.959,0-1.736,0.777-1.736,1.737C136.896,152.072,137.673,152.849,138.632,152.849z"/>
<path fill="#EDEDED" d="M124.048,167.01c0.713,0,1.292-0.578,1.292-1.292c0-0.713-0.579-1.291-1.292-1.291
	c-0.713,0-1.291,0.578-1.291,1.291C122.757,166.432,123.335,167.01,124.048,167.01z"/>
<path fill="#EDEDED" d="M109.464,181.171c0.48,0,0.869-0.388,0.869-0.868c0-0.479-0.389-0.868-0.869-0.868
	c-0.479,0-0.868,0.389-0.868,0.868C108.596,180.783,108.985,181.171,109.464,181.171z"/>
<path fill="#EDEDED" d="M285.632,41.143c3.099,0,5.611-2.512,5.611-5.611s-2.512-5.611-5.611-5.611s-5.611,2.512-5.611,5.611
	S282.533,41.143,285.632,41.143z"/>
<path fill="#EDEDED" d="M271.048,55.304c2.865,0,5.188-2.323,5.188-5.188c0-2.865-2.323-5.188-5.188-5.188
	c-2.866,0-5.188,2.323-5.188,5.188C265.86,52.982,268.182,55.304,271.048,55.304z"/>
<path fill="#EDEDED" d="M256.441,69.443c2.619,0,4.743-2.123,4.743-4.743s-2.124-4.743-4.743-4.743
	c-2.619,0-4.743,2.123-4.743,4.743S253.822,69.443,256.441,69.443z"/>
<path fill="#EDEDED" d="M241.857,83.603c2.386,0,4.32-1.934,4.32-4.32c0-2.386-1.934-4.32-4.32-4.32s-4.32,1.934-4.32,4.32
	C237.537,81.669,239.471,83.603,241.857,83.603z"/>
<path fill="#EDEDED" d="M227.273,97.765c2.139,0,3.874-1.734,3.874-3.874c0-2.14-1.735-3.874-3.874-3.874
	c-2.14,0-3.875,1.735-3.875,3.874C223.398,96.031,225.133,97.765,227.273,97.765z"/>
<path fill="#EDEDED" d="M212.689,111.925c1.906,0,3.451-1.545,3.451-3.451c0-1.907-1.545-3.452-3.451-3.452
	c-1.906,0-3.451,1.545-3.451,3.452C209.238,110.38,210.783,111.925,212.689,111.925z"/>
<path fill="#EDEDED" d="M198.105,126.086c1.672,0,3.028-1.355,3.028-3.028c0-1.672-1.356-3.028-3.028-3.028
	c-1.673,0-3.029,1.356-3.029,3.028C195.076,124.731,196.432,126.086,198.105,126.086z"/>
<path fill="#EDEDED" d="M183.498,140.225c1.427,0,2.583-1.156,2.583-2.583c0-1.426-1.156-2.582-2.583-2.582
	c-1.426,0-2.583,1.156-2.583,2.582C180.915,139.069,182.072,140.225,183.498,140.225z"/>
<path fill="#EDEDED" d="M168.914,154.387c1.193,0,2.16-0.967,2.16-2.16c0-1.193-0.967-2.16-2.16-2.16c-1.193,0-2.16,0.967-2.16,2.16
	C166.754,153.42,167.721,154.387,168.914,154.387z"/>
<path fill="#EDEDED" d="M154.33,168.57c0.959,0,1.737-0.777,1.737-1.737c0-0.959-0.778-1.736-1.737-1.736s-1.737,0.777-1.737,1.736
	C152.593,167.793,153.371,168.57,154.33,168.57z"/>
<path fill="#EDEDED" d="M139.746,182.709c0.713,0,1.291-0.578,1.291-1.291c0-0.714-0.578-1.292-1.291-1.292
	c-0.714,0-1.292,0.578-1.292,1.292C138.454,182.131,139.032,182.709,139.746,182.709z"/>
</svg>
