<svg width="20" height="20" viewBox="0 0 20 20" fill="none" xmlns="http://www.w3.org/2000/svg">
<g clip-path="url(#clip0)">
<path d="M4.38832 8.1375C4.77823 6.95787 5.53071 5.93151 6.53842 5.20483C7.54613 4.47815 8.7576 4.08828 9.99999 4.09083C11.4083 4.09083 12.6817 4.59083 13.6817 5.40917L16.5917 2.5C14.8183 0.954167 12.5458 0 9.99999 0C6.05832 0 2.66499 2.24833 1.03333 5.54167L4.38832 8.1375Z" fill="#EA4335"/>
<path d="M13.3667 15.0108C12.4584 15.5967 11.305 15.9092 10 15.9092C8.76261 15.9117 7.55572 15.525 6.55025 14.8036C5.54478 14.0823 4.79167 13.063 4.39755 11.89L1.03088 14.4458C1.85692 16.1178 3.13527 17.5245 4.72074 18.5063C6.3062 19.4881 8.13522 20.0056 10 20C12.4442 20 14.7792 19.1308 16.5284 17.5L13.3675 15.0108H13.3667Z" fill="#34A853"/>
<path d="M16.5283 17.5C18.3575 15.7933 19.545 13.2533 19.545 10C19.545 9.40834 19.4542 8.7725 19.3183 8.18167H10V12.0458H15.3633C15.0992 13.345 14.3883 14.3508 13.3675 15.0108L16.5283 17.5Z" fill="#4A90E2"/>
<path d="M4.39748 11.89C4.1936 11.2807 4.09003 10.6424 4.09081 9.99999C4.09081 9.34832 4.19498 8.72249 4.38831 8.13749L1.03331 5.54166C0.346957 6.92723 -0.00685536 8.45375 -2.50248e-05 9.99999C-2.50248e-05 11.6 0.370808 13.1083 1.03081 14.4458L4.39748 11.89Z" fill="#FBBC05"/>
</g>
<defs>
<clipPath id="clip0">
<rect width="20" height="20" fill="white"/>
</clipPath>
</defs>
</svg>
